Stat 475 Final Project
…
To get a sense of some of the countries that have the furthest to go in becoming developed I am first looking at the average HDI of countries between 2002-2016 as it combines both social and financial status of a country. The histogram below depicts the average HDI between 2002 and 2016 of all countries in the data set. This histogram of average HDI is multimodal and left skewed, meaning that a majority of countries have high HDIs. There does not seem to be any noticable outliers in the histogram that are separated from the rest of the data. From the histogram below it seems that some of the countries that have the furthest to go in becoming developed have an HDI of less than 0.5. The list of these countries include Haiti, Ivory Coast, Madagascar, Malawi, Senegal, Tanzania, and Uganda.

##Find the average HDI between 2002 and 2016 of all countries in the dataset
averageHDI <- data %>% dplyr::group_by(Country) %>% dplyr::summarise(Average_HDI = mean(HDI))
averageHDI

## # A tibble: 82 x 2
##    Country   Average_HDI
##  * <fct>           <dbl>
##  1 Albania         0.734
##  2 Angola          0.506
##  3 Argentina       0.801
##  4 Australia       0.920
##  5 Austria         0.880
##  6 Belgium         0.899
##  7 Bolivia         0.647
##  8 Botswana        0.645
##  9 Brazil          0.723
## 10 Bulgaria        0.772
## # ... with 72 more rows
…
## Find average of all quantitive variables in the dataset for each country for the observations between 2002-2016
parcoordplot <- data %>% dplyr::select(-Continent, -Date) %>% dplyr::group_by(Country) %>% dplyr::summarise_at(vars(Annual.GDP, GDP.per.capita, Debt, Debt.Per.Capita, Deficit...M..., Expenditure..M..., Expenditure.Per.Capita, Corruption.Index, Exports, Exports...GDP, Imports, Imports...GDP, Population, Fertility.Rate, Crude.death.rate, HDI, Life.expectancy, CO2.Tons.per.capita), mean)

##Rejoin the countries status label with the averaged data
countrystatus <- data %>% dplyr::select(Country, status) %>% dplyr::group_by(Country) %>%  unique()
joinedparcoord <- inner_join(countrystatus, parcoordplot)

## Joining, by = "Country"

joinedparcoord

## # A tibble: 82 x 20
## # Groups:   Country [82]
##    Country status Annual.GDP GDP.per.capita   Debt Debt.Per.Capita
##    <fct>   <fct>       <dbl>          <dbl>  <dbl>           <dbl>
##  1 Albania Devel~     10409           3549. 6.52e3           2232.
##  2 Angola  Devel~     79566.          3364. 3.20e4           1335.
##  3 Argent~ Devel~    382423.          9284. 2.13e5           5240.
##  4 Austra~ Devel~   1063466.         47866. 2.50e5          10937.
##  5 Austria Devel~    369058.         44048. 2.81e5          33383.
##  6 Belgium Devel~    447794.         41378. 4.48e5          41112.
##  7 Bolivia Devel~     19741.          1952. 8.70e3            873.
##  8 Botswa~ Devel~     11998.          5917. 1.77e3            856.
##  9 Brazil  Devel~   1619999           8294. 1.06e6           5436.
## 10 Bulgar~ Devel~     43695.          5885. 9.53e3           1290.
## # ... with 72 more rows, and 14 more variables: Deficit...M... <dbl>,
## #   Expenditure..M... <dbl>, Expenditure.Per.Capita <dbl>,
## #   Corruption.Index <dbl>, Exports <dbl>, Exports...GDP <dbl>, Imports <dbl>,
## #   Imports...GDP <dbl>, Population <dbl>, Fertility.Rate <dbl>,
## #   Crude.death.rate <dbl>, HDI <dbl>, Life.expectancy <dbl>,
## #   CO2.Tons.per.capita <dbl>
…
